<?xml version="1.0" encoding="UTF-8"?>
<!DOCTYPE suite SYSTEM "https://testng.org/testng-1.0.dtd">
<suite name="Failed suite [All Test Suite]" guice-stage="DEVELOPMENT" verbose="0">
  <test thread-count="5" name="/Users/dariasyvak/IdeaProjects/testng_second_project(failed)" verbose="0">
    <classes>
      <class name="scripts.UnitedAirlinesTest">
        <methods>
          <include name="trip"/>
          <include name="setup"/>
          <include name="teardown"/>
        </methods>
      </class> <!-- scripts.UnitedAirlinesTest -->
    </classes>
  </test> <!-- /Users/dariasyvak/IdeaProjects/testng_second_project(failed) -->
</suite> <!-- Failed suite [All Test Suite] -->
